1Dscan/.Xil/Vivado-5892-jackers/hw_ila_data_1/zip_work/waveform.vcd
$date
        2023-Jan-31 14:30:18
$end
$version
        Vivado v2022.2 (64-bit)
$end
$timescale
        1ps
$end
$scope module dut $end
$var reg 1 " reset_IBUF $end
$var reg 1 # o_enable $end
$var reg 12 $ o_data [11:0] $end
$var reg 1 0 UART_TX $end
$var reg 1 1 _TRIGGER $end
$var reg 1 2 _WINDOW $end
$var reg 1 3 _GAP $end
$upscope $end
$enddefinitions $end
#0
$dumpvars
0"
0#
b0 $
00
01
12
03
$end
#1
11
#1247
10
#1359
00
#2763
10
#2875
00
#4279
10
#4391
00
#5795
10
#5907
00
#7311
10
#7423
00
#8192
02
#8193
01
#8827
10
#8939
00
#10343
10
#10455
00
#11859
10
#11971
00
#13375
10
#13487
00
#14891
10
#15003
00
#16384
12
#16385
11
#16407
10
#16519
00
#17923
10
#18035
00
#19439
10
#19551
00
#20955
10
#21067
00
#22471
10
#22583
00
#23987
10
#24099
00
#24576
02
#24577
01
#25503
10
#25615
00
#27019
10
#27131
00
#28535
10
#28647
00
#30051
10
#30163
00
#31567
10
#31679
00
